<?xml version="1.0" encoding="utf-8"?>
<!-- Generator: Adobe Illustrator 16.0.0, SVG Export Plug-In . SVG Version: 6.00 Build 0)  -->
<!DOCTYPE svg PUBLIC "-//W3C//DTD SVG 1.1//EN" "http://www.w3.org/Graphics/SVG/1.1/DTD/svg11.dtd">
<svg version="1.1" id="Layer_1" xmlns="http://www.w3.org/2000/svg" xmlns:xlink="http://www.w3.org/1999/xlink" x="0px" y="0px"
	 width="76px" height="58px" viewBox="0 0 76 58" enable-background="new 0 0 76 58" xml:space="preserve">
<g display="none">
	<g display="inline">
		<path fill="#4A4A4A" d="M9.063,42.287V17.892h3.695l7.696,16.291V17.892h3.528v24.395h-3.811l-7.581-15.909v15.909H9.063z"/>
		<path fill="#4A4A4A" d="M27.229,30.239c0-2.485,0.287-4.57,0.859-6.257c0.428-1.242,1.012-2.357,1.752-3.345
			c0.739-0.987,1.55-1.719,2.431-2.197c1.172-0.643,2.522-0.965,4.054-0.965c2.771,0,4.988,1.115,6.651,3.345
			c1.663,2.229,2.495,5.331,2.495,9.302c0,3.938-0.825,7.02-2.476,9.245c-1.651,2.224-3.857,3.336-6.62,3.336
			c-2.796,0-5.02-1.106-6.67-3.319C28.054,37.17,27.229,34.122,27.229,30.239z M31.142,30.073c0,2.762,0.491,4.856,1.476,6.282
			c0.982,1.426,2.231,2.139,3.745,2.139s2.756-0.707,3.727-2.122c0.971-1.415,1.456-3.536,1.456-6.365
			c0-2.796-0.473-4.881-1.417-6.257c-0.945-1.375-2.2-2.063-3.766-2.063c-1.564,0-2.826,0.696-3.784,2.088
			S31.142,27.266,31.142,30.073z"/>
		<path fill="#4A4A4A" d="M48.382,42.287V17.892h5.684l3.412,16.64l3.374-16.64h5.695v24.395H63.02V23.084l-3.733,19.203H55.63
			l-3.72-19.203v19.203H48.382z"/>
	</g>
	<rect x="9" y="47" display="inline" fill="#4A4A4A" width="58" height="6"/>
	<rect x="9" y="6" display="inline" fill="#4A4A4A" width="58" height="6"/>
</g>
<g display="none">
	<g display="inline">
		<path fill="#4A4A4A" d="M39.335,4.717c-0.828-0.782-2.115-0.782-2.944,0c-0.754,0.727-18.604,17.79-18.604,29.255
			c0,11.832,9.004,21.463,20.082,21.463c11.066,0,20.081-9.632,20.081-21.463C57.95,22.507,40.101,5.443,39.335,4.717z
			 M37.869,51.162c-8.711,0-15.798-7.713-15.798-17.19c0-7.277,10.322-19.179,15.798-24.708
			c5.475,5.528,15.798,17.431,15.798,24.708C53.667,43.449,46.58,51.162,37.869,51.162z"/>
		<path fill="#4A4A4A" d="M29.725,33.521c0.018-1.17-0.903-2.144-2.084-2.179c-0.021,0-0.042,0-0.053,0
			c-1.153,0-2.105,0.924-2.137,2.087c-0.01,0.239-0.148,6.049,4.45,10.865c1.026,1.079,2.605,0.487,3.025,0.099
			c0.86-0.81,0.902-2.157,0.095-3.031C29.714,37.857,29.725,33.619,29.725,33.521L29.725,33.521z"/>
	</g>
</g>
<g>
	<g>
		<path fill="#4A4A4A" d="M31.362,24.283H22.49v-8.754h2.484v-4.85H8.768v4.85h2.484v13.486c0,1.814,0.631,3.332,1.893,4.555
			c1.262,1.223,2.761,1.833,4.495,1.833h13.723v2.366h4.85V21.917h-4.85V24.283z"/>
		<path fill="#4A4A4A" d="M64.485,44.156V30.671c0-1.814-0.631-3.332-1.894-4.554c-1.262-1.223-2.76-1.834-4.495-1.834H44.375
			v-2.366h-4.851v15.851h4.851v-2.366h8.872v8.754h-2.484v4.73h16.206v-4.73H64.485z"/>
	</g>
</g>
</svg>
